module gitlab.com/Nikovar/temperature-forecast

go 1.19

require (
	github.com/gofiber/fiber/v2 v2.39.0
	github.com/gofiber/swagger v0.1.6
	github.com/lib/pq v1.10.7
	github.com/swaggo/swag v1.8.7
	gopkg.in/natefinch/lumberjack.v2 v2.0.0
	gopkg.in/yaml.v2 v2.4.0
)

require (
	github.com/KyleBanks/depth v1.2.1 // indirect
	github.com/andybalholm/brotli v1.0.4 // indirect
	github.com/go-openapi/jsonpointer v0.19.5 // indirect
	github.com/go-openapi/jsonreference v0.20.0 // indirect
	github.com/go-openapi/spec v0.20.7 // indirect
	github.com/go-openapi/swag v0.22.3 // indirect
	github.com/josharian/intern v1.0.0 // indirect
	github.com/klauspost/compress v1.15.11 // indirect
	github.com/mailru/easyjson v0.7.7 // indirect
	github.com/mattn/go-colorable v0.1.13 // indirect
	github.com/mattn/go-isatty v0.0.16 // indirect
	github.com/mattn/go-runewidth v0.0.14 // indirect
	github.com/rivo/uniseg v0.4.2 // indirect
	github.com/swaggo/files v0.0.0-20220728132757-551d4a08d97a // indirect
	github.com/valyala/bytebufferpool v1.0.0 // indirect
	github.com/valyala/fasthttp v1.40.0 // indirect
	github.com/valyala/tcplisten v1.0.0 // indirect
	golang.org/x/net v0.1.0 // indirect
	golang.org/x/sys v0.1.0 // indirect
	golang.org/x/tools v0.2.0 // indirect
	gopkg.in/yaml.v3 v3.0.1 // indirect
)
